module gitlab.com/vorpalhex/responsimg
go 1.14

require (
	github.com/disintegration/imaging v1.6.2
	github.com/mitchellh/go-homedir v1.1.0
	github.com/spf13/cobra v0.0.6
	github.com/spf13/viper v1.6.2
)
